(footprint "LOGO" (version 20210606) (generator bitmap2component) (layer "F.Cu")
  (at 0 0)
(attr board_only exclude_from_pos_files exclude_from_bom)
 (fp_text reference "G***" (at 0 0) (layer F.SilkS)
  (effects (font (thickness 0.3)))
  )
  (fp_text value "LOGO" (at 0.75 0) (layer F.SilkS) hide
  (effects (font (thickness 0.3)))
  )
  (fp_poly (pts (xy -3.343848 -0.793511) (xy -3.180653 -0.688843) (xy -3.055647 -0.524254) (xy -3.054111 -0.521261) (xy -3.017533 -0.424058) (xy -2.995327 -0.294827) (xy -2.985060 -0.114887) (xy -2.983618 0.020159)
     (xy -2.992367 0.275007) (xy -3.022118 0.466525) (xy -3.078127 0.610468) (xy -3.165647 0.722589) (xy -3.238123 0.783093) (xy -3.368105 0.840507) (xy -3.538856 0.866999) (xy -3.715482 0.859524)
     (xy -3.820080 0.833870) (xy -3.866542 0.820711) (xy -3.893611 0.833437) (xy -3.906520 0.887246) (xy -3.910507 0.997336) (xy -3.910794 1.097174) (xy -3.912148 1.249621) (xy -3.920995 1.341352)
     (xy -3.944509 1.392285) (xy -3.989868 1.422339) (xy -4.034321 1.440059) (xy -4.157848 1.486686) (xy -4.145194 0.511517) (xy -4.140906 0.205235) (xy -4.137316 0.020159) (xy -3.910794 0.020159)
     (xy -3.909593 0.201400) (xy -3.902923 0.321808) (xy -3.886183 0.401184) (xy -3.854770 0.459326) (xy -3.804084 0.516031) (xy -3.792943 0.527228) (xy -3.677191 0.613253) (xy -3.568096 0.645079)
     (xy -3.457251 0.612336) (xy -3.343248 0.527228) (xy -3.288734 0.468749) (xy -3.254295 0.412282) (xy -3.235330 0.338028) (xy -3.227237 0.226191) (xy -3.225414 0.056970) (xy -3.225397 0.020159)
     (xy -3.226598 -0.161082) (xy -3.233268 -0.281491) (xy -3.250008 -0.360867) (xy -3.281421 -0.419008) (xy -3.332108 -0.475713) (xy -3.343248 -0.486911) (xy -3.459000 -0.572936) (xy -3.568096 -0.604762)
     (xy -3.678940 -0.572019) (xy -3.792943 -0.486911) (xy -3.847457 -0.428431) (xy -3.881896 -0.371964) (xy -3.900861 -0.297711) (xy -3.908954 -0.185873) (xy -3.910777 -0.016652) (xy -3.910794 0.020159)
     (xy -4.137316 0.020159) (xy -4.136321 -0.031167) (xy -4.130438 -0.208442) (xy -4.122256 -0.337342) (xy -4.110773 -0.428619) (xy -4.094987 -0.493026) (xy -4.073898 -0.541314) (xy -4.046503 -0.584237)
     (xy -4.042620 -0.589712) (xy -3.894617 -0.736358) (xy -3.717624 -0.818431) (xy -3.528436 -0.837095) )(layer F.SilkS) (width  0.000000)
  )
  (fp_poly (pts (xy -5.084258 -1.389220) (xy -4.900286 -1.284303) (xy -4.805650 -1.195225) (xy -4.737835 -1.090230) (xy -4.691950 -0.953865) (xy -4.663105 -0.770677) (xy -4.646408 -0.525213) (xy -4.644410 -0.475746)
     (xy -4.638157 -0.134976) (xy -4.649934 0.136823) (xy -4.682928 0.349937) (xy -4.740326 0.514650) (xy -4.825313 0.641250) (xy -4.941077 0.740021) (xy -5.038472 0.796270) (xy -5.249885 0.870897)
     (xy -5.459731 0.872781) (xy -5.579763 0.845117) (xy -5.726347 0.769006) (xy -5.867361 0.642262) (xy -5.974546 0.491628) (xy -5.992109 0.454866) (xy -6.016395 0.353482) (xy -6.034134 0.190946)
     (xy -6.045311 -0.013528) (xy -6.046287 -0.061735) (xy -5.801287 -0.061735) (xy -5.794753 0.160983) (xy -5.778865 0.309451) (xy -5.762916 0.368848) (xy -5.660839 0.521238) (xy -5.514897 0.614965)
     (xy -5.342106 0.644238) (xy -5.159481 0.603265) (xy -5.123752 0.586379) (xy -5.032250 0.523573) (xy -4.965538 0.435824) (xy -4.920236 0.311210) (xy -4.892968 0.137809) (xy -4.880355 -0.096302)
     (xy -4.878413 -0.279531) (xy -4.883103 -0.557500) (xy -4.899338 -0.767160) (xy -4.930367 -0.920408) (xy -4.979439 -1.029141) (xy -5.049804 -1.105257) (xy -5.115140 -1.146370) (xy -5.305910 -1.206879)
     (xy -5.487030 -1.189594) (xy -5.650056 -1.095367) (xy -5.653888 -1.091978) (xy -5.785556 -0.974433) (xy -5.798611 -0.361640) (xy -5.801287 -0.061735) (xy -6.046287 -0.061735) (xy -6.049913 -0.240721)
     (xy -6.047927 -0.471416) (xy -6.039340 -0.686398) (xy -6.024136 -0.866450) (xy -6.002304 -0.992354) (xy -5.993149 -1.019941) (xy -5.875242 -1.206639) (xy -5.709187 -1.340837) (xy -5.511197 -1.418615)
     (xy -5.297483 -1.436050) )(layer F.SilkS) (width  0.000000)
  )
  (fp_poly (pts (xy -1.640754 -0.816667) (xy -1.470378 -0.747292) (xy -1.333493 -0.628746) (xy -1.244535 -0.470069) (xy -1.217942 -0.280299) (xy -1.218700 -0.267323) (xy -1.229683 -0.111312) (xy -1.684226 0.090956)
     (xy -1.875017 0.177355) (xy -2.002567 0.240276) (xy -2.078081 0.287211) (xy -2.112770 0.325649) (xy -2.117840 0.363082) (xy -2.114380 0.378437) (xy -2.057761 0.480636) (xy -1.963175 0.574669)
     (xy -1.859519 0.635219) (xy -1.810036 0.645079) (xy -1.668416 0.614313) (xy -1.546842 0.534881) (xy -1.472333 0.426084) (xy -1.464562 0.398285) (xy -1.408852 0.283201) (xy -1.342340 0.238751)
     (xy -1.253184 0.209081) (xy -1.214466 0.220687) (xy -1.211368 0.288407) (xy -1.220285 0.360969) (xy -1.279710 0.553444) (xy -1.393306 0.716087) (xy -1.544375 0.825579) (xy -1.556921 0.831069)
     (xy -1.718034 0.879297) (xy -1.864824 0.872605) (xy -2.031686 0.809229) (xy -2.037346 0.806441) (xy -2.165028 0.729943) (xy -2.254907 0.637753) (xy -2.312987 0.515174) (xy -2.345271 0.347512)
     (xy -2.357764 0.120071) (xy -2.358572 0.020159) (xy -2.356077 -0.073273) (xy -2.132215 -0.073273) (xy -2.116082 -0.006115) (xy -2.103872 0.000000) (xy -2.049186 -0.015819) (xy -1.941789 -0.057888)
     (xy -1.801931 -0.118126) (xy -1.756044 -0.138817) (xy -1.616248 -0.206937) (xy -1.510251 -0.266990) (xy -1.455370 -0.308848) (xy -1.451429 -0.316948) (xy -1.489809 -0.440231) (xy -1.600929 -0.537865)
     (xy -1.615582 -0.545777) (xy -1.764165 -0.598511) (xy -1.890452 -0.582328) (xy -1.998644 -0.511675) (xy -2.072018 -0.427129) (xy -2.112121 -0.315052) (xy -2.126974 -0.209294) (xy -2.132215 -0.073273)
     (xy -2.356077 -0.073273) (xy -2.351830 -0.232320) (xy -2.327444 -0.419761) (xy -2.279169 -0.556952) (xy -2.200764 -0.658679) (xy -2.085984 -0.739731) (xy -2.024236 -0.771742) (xy -1.830186 -0.827830)
     )(layer F.SilkS) (width  0.000000)
  )
  (fp_poly (pts (xy 1.812068 -1.405272) (xy 1.945421 -1.387285) (xy 2.052405 -1.351457) (xy 2.115844 -1.318912) (xy 2.286464 -1.180305) (xy 2.398976 -1.001435) (xy 2.452238 -0.799107) (xy 2.445108 -0.590128)
     (xy 2.376444 -0.391303) (xy 2.245103 -0.219439) (xy 2.193528 -0.175817) (xy 2.059990 -0.073963) (xy 2.269637 0.347579) (xy 2.359416 0.531929) (xy 2.414873 0.657811) (xy 2.440053 0.737676)
     (xy 2.439000 0.783980) (xy 2.418927 0.807276) (xy 2.351117 0.840192) (xy 2.292296 0.838201) (xy 2.233984 0.792685) (xy 2.167701 0.695026) (xy 2.084965 0.536605) (xy 2.021257 0.403175)
     (xy 1.813234 -0.040317) (xy 1.330476 -0.040317) (xy 1.330476 0.763961) (xy 1.209523 0.826508) (xy 1.088571 0.889055) (xy 1.088571 -0.282222) (xy 1.330476 -0.282222) (xy 1.648752 -0.282222)
     (xy 1.812493 -0.284551) (xy 1.919652 -0.295760) (xy 1.994241 -0.322182) (xy 2.060273 -0.370151) (xy 2.092244 -0.399192) (xy 2.172647 -0.494890) (xy 2.218495 -0.588987) (xy 2.222103 -0.610858)
     (xy 2.211977 -0.825681) (xy 2.153506 -0.983332) (xy 2.040626 -1.089404) (xy 1.867271 -1.149489) (xy 1.627376 -1.169180) (xy 1.616557 -1.169206) (xy 1.330476 -1.169206) (xy 1.330476 -0.282222)
     (xy 1.088571 -0.282222) (xy 1.088571 -1.332472) (xy 1.191989 -1.371791) (xy 1.280897 -1.390377) (xy 1.422808 -1.404034) (xy 1.590127 -1.410300) (xy 1.625402 -1.410448) )(layer F.SilkS) (width  0.000000)
  )
  (fp_poly (pts (xy 3.802968 -1.395266) (xy 3.980890 -1.299678) (xy 4.128713 -1.151622) (xy 4.232804 -0.952669) (xy 4.254329 -0.879822) (xy 4.261458 -0.799680) (xy 4.220674 -0.745304) (xy 4.156337 -0.707437)
     (xy 4.072825 -0.667543) (xy 4.038671 -0.672023) (xy 4.031792 -0.727863) (xy 4.031746 -0.746840) (xy 3.996932 -0.908518) (xy 3.905972 -1.059372) (xy 3.813479 -1.143060) (xy 3.676845 -1.195300)
     (xy 3.515242 -1.205841) (xy 3.366887 -1.174411) (xy 3.314772 -1.146600) (xy 3.236794 -1.080820) (xy 3.180300 -1.000411) (xy 3.142056 -0.892071) (xy 3.118823 -0.742502) (xy 3.107367 -0.538404)
     (xy 3.104444 -0.282222) (xy 3.107718 -0.014082) (xy 3.119697 0.186908) (xy 3.143618 0.334048) (xy 3.182717 0.440638) (xy 3.240229 0.519978) (xy 3.314772 0.582156) (xy 3.460915 0.639349)
     (xy 3.627208 0.636506) (xy 3.788651 0.580400) (xy 3.920243 0.477802) (xy 3.970587 0.404494) (xy 4.005762 0.295488) (xy 4.027873 0.148131) (xy 4.031746 0.062478) (xy 4.031746 -0.161270)
     (xy 3.810000 -0.161270) (xy 3.688529 -0.164154) (xy 3.607986 -0.171594) (xy 3.588254 -0.178804) (xy 3.601039 -0.225343) (xy 3.627573 -0.299756) (xy 3.652669 -0.352499) (xy 3.690925 -0.383385)
     (xy 3.761628 -0.398235) (xy 3.884064 -0.402869) (xy 3.970271 -0.403175) (xy 4.273650 -0.403175) (xy 4.272765 -0.050397) (xy 4.256160 0.233474) (xy 4.204114 0.453497) (xy 4.110872 0.620795)
     (xy 3.970679 0.746492) (xy 3.819898 0.824970) (xy 3.625627 0.879303) (xy 3.441154 0.867009) (xy 3.285873 0.811158) (xy 3.143019 0.733154) (xy 3.035220 0.639994) (xy 2.957981 0.519953)
     (xy 2.906808 0.361302) (xy 2.877205 0.152315) (xy 2.864678 -0.118735) (xy 2.863425 -0.291007) (xy 2.865638 -0.535033) (xy 2.872508 -0.714615) (xy 2.885683 -0.845886) (xy 2.906810 -0.944980)
     (xy 2.937535 -1.028032) (xy 2.938994 -1.031264) (xy 3.062930 -1.221556) (xy 3.224928 -1.351532) (xy 3.411355 -1.422763) (xy 3.608579 -1.436818) )(layer F.SilkS) (width  0.000000)
  )
  (fp_poly (pts (xy 0.138811 -0.816102) (xy 0.324243 -0.727867) (xy 0.439752 -0.623020) (xy 0.564444 -0.481004) (xy 0.564444 0.158359) (xy 0.563504 0.408781) (xy 0.558896 0.589797) (xy 0.547936 0.712631)
     (xy 0.527940 0.788506) (xy 0.496226 0.828645) (xy 0.450110 0.844272) (xy 0.399877 0.846667) (xy 0.385825 0.808811) (xy 0.374231 0.705069) (xy 0.366164 0.550177) (xy 0.362690 0.358871)
     (xy 0.362632 0.332619) (xy 0.359241 0.121629) (xy 0.350171 -0.073964) (xy 0.336799 -0.232500) (xy 0.320503 -0.332314) (xy 0.320314 -0.333000) (xy 0.245226 -0.486538) (xy 0.127182 -0.574524)
     (xy -0.026927 -0.592336) (xy -0.059140 -0.587514) (xy -0.153714 -0.562445) (xy -0.222758 -0.520302) (xy -0.270189 -0.449540) (xy -0.299922 -0.338610) (xy -0.315877 -0.175965) (xy -0.321968 0.049943)
     (xy -0.322540 0.188981) (xy -0.323369 0.416448) (xy -0.326968 0.576476) (xy -0.335007 0.682252) (xy -0.349156 0.746966) (xy -0.371085 0.783805) (xy -0.400525 0.804931) (xy -0.460601 0.834074)
     (xy -0.504287 0.841275) (xy -0.533901 0.817038) (xy -0.551760 0.751871) (xy -0.560181 0.636281) (xy -0.561482 0.460773) (xy -0.557979 0.215854) (xy -0.557020 0.163806) (xy -0.544286 -0.519054)
     (xy -0.425008 -0.643443) (xy -0.250376 -0.774234) (xy -0.057583 -0.831672) )(layer F.SilkS) (width  0.000000)
  )
  (fp_poly (pts (xy 5.253494 -1.405617) (xy 5.423982 -1.386180) (xy 5.538952 -1.355196) (xy 5.696148 -1.249328) (xy 5.803899 -1.095343) (xy 5.855778 -0.913327) (xy 5.845356 -0.723366) (xy 5.787491 -0.578578)
     (xy 5.743562 -0.495956) (xy 5.743893 -0.441271) (xy 5.794123 -0.378357) (xy 5.823307 -0.348929) (xy 5.966204 -0.156185) (xy 6.036484 0.054994) (xy 6.033730 0.271226) (xy 5.957523 0.479132)
     (xy 5.853546 0.619807) (xy 5.744653 0.717894) (xy 5.622356 0.784333) (xy 5.468805 0.824366) (xy 5.266151 0.843238) (xy 5.081294 0.846667) (xy 4.676825 0.846667) (xy 4.676825 0.604762)
     (xy 4.878412 0.604762) (xy 5.204984 0.604762) (xy 5.368641 0.603102) (xy 5.475291 0.593467) (xy 5.548555 0.568874) (xy 5.612056 0.522337) (xy 5.668634 0.467683) (xy 5.758565 0.362418)
     (xy 5.798333 0.262331) (xy 5.805714 0.161270) (xy 5.793301 0.037766) (xy 5.744471 -0.060189) (xy 5.668634 -0.145143) (xy 5.596682 -0.213142) (xy 5.533006 -0.253864) (xy 5.453985 -0.274294)
     (xy 5.335998 -0.281414) (xy 5.204984 -0.282222) (xy 4.878412 -0.282222) (xy 4.878412 0.604762) (xy 4.676825 0.604762) (xy 4.676825 -0.873545) (xy 4.878412 -0.873545) (xy 4.881841 -0.726063)
     (xy 4.890882 -0.611799) (xy 4.903667 -0.553166) (xy 4.905291 -0.551005) (xy 4.957218 -0.536576) (xy 5.064099 -0.526820) (xy 5.170455 -0.524127) (xy 5.313658 -0.529257) (xy 5.407587 -0.551501)
     (xy 5.483312 -0.601142) (xy 5.526593 -0.641978) (xy 5.601920 -0.737489) (xy 5.642290 -0.827991) (xy 5.644444 -0.846667) (xy 5.617051 -0.929564) (xy 5.549014 -1.027347) (xy 5.526593 -1.051355)
     (xy 5.453469 -1.116117) (xy 5.380018 -1.151630) (xy 5.278402 -1.166461) (xy 5.143577 -1.169206) (xy 4.878412 -1.169206) (xy 4.878412 -0.873545) (xy 4.676825 -0.873545) (xy 4.676825 -1.317533)
     (xy 4.779516 -1.364322) (xy 4.900201 -1.395061) (xy 5.068547 -1.408702) )(layer F.SilkS) (width  0.000000)
  )
)
